<?xml version="1.0"?>
<!DOCTYPE svg PUBLIC "-//W3C//DTD SVG 1.1//EN" "http://www.w3.org/Graphics/SVG/1.1/DTD/svg11.dtd">
<svg xmlns="http://www.w3.org/2000/svg" xmlns:xl="http://www.w3.org/1999/xlink" version="1.1" viewBox="0 0 204 162" width="17pc" height="162pt"><metadata xmlns:dc="http://purl.org/dc/elements/1.1/"><dc:date>2016-08-11 13:42Z</dc:date><!-- Produced by OmniGraffle Professional 5.4.4 --></metadata><defs><font-face font-family="Handwriting - Dakota" font-size="32" panose-1="2 0 4 0 0 0 0 0 0 0" units-per-em="1000" underline-position="-100" underline-thickness="20" slope="0" x-height="430" cap-height="801" ascent="1061.99646" descent="-434.00574" font-weight="500"><font-face-src><font-face-name name="Handwriting-Dakota"/></font-face-src></font-face></defs><g stroke="none" stroke-opacity="1" stroke-dasharray="none" fill="none" fill-opacity="1"><title>App</title><g><title>Capa 1</title><path d="M 11 2 L 193 2 C 197.97056 2 202 6.0294373 202 11 L 202 150.14286 C 202 155.11342 197.97056 159.14286 193 159.14286 L 11 159.14286 C 6.0294373 159.14286 2 155.11342 2 150.14286 L 2 11 C 2 6.0294373 6.0294373 2 11 2 Z" fill="black"/><path d="M 11 2 L 193 2 C 197.97056 2 202 6.0294373 202 11 L 202 150.14286 C 202 155.11342 197.97056 159.14286 193 159.14286 L 11 159.14286 C 6.0294373 159.14286 2 155.11342 2 150.14286 L 2 11 C 2 6.0294373 6.0294373 2 11 2 Z" stroke="black" stroke-linecap="round" stroke-linejoin="round" stroke-width="1"/><text transform="translate(7 106.64286)" fill="white"><tspan font-family="Handwriting - Dakota" font-size="32" font-weight="500" fill="white" x="62.6" y="34" textLength="64.800003">APP</tspan></text></g></g></svg>
