<?xml version="1.0"?>
<!DOCTYPE svg PUBLIC "-//W3C//DTD SVG 1.1//EN" "http://www.w3.org/Graphics/SVG/1.1/DTD/svg11.dtd">
<svg xmlns="http://www.w3.org/2000/svg" xmlns:xl="http://www.w3.org/1999/xlink" version="1.1" viewBox="0 0 204 188" width="17pc" height="188pt"><metadata xmlns:dc="http://purl.org/dc/elements/1.1/"><dc:date>2016-08-11 13:41Z</dc:date><!-- Produced by OmniGraffle Professional 5.4.4 --></metadata><defs><font-face font-family="Handwriting - Dakota" font-size="32" panose-1="2 0 4 0 0 0 0 0 0 0" units-per-em="1000" underline-position="-100" underline-thickness="20" slope="0" x-height="430" cap-height="801" ascent="1061.99646" descent="-434.00574" font-weight="500"><font-face-src><font-face-name name="Handwriting-Dakota"/></font-face-src></font-face></defs><g stroke="none" stroke-opacity="1" stroke-dasharray="none" fill="none" fill-opacity="1"><title>SshAccount</title><g><title>Capa 1</title><path d="M 2 186.61538 C 2 147.39988 46.7716 115.60947 102 115.60947 C 157.2284 115.60947 202 147.39988 202 186.61538 L 2 186.61538" fill="white"/><path d="M 2 186.61538 C 2 147.39988 46.7716 115.60947 102 115.60947 C 157.2284 115.60947 202 147.39988 202 186.61538 L 2 186.61538" stroke="black" stroke-linecap="round" stroke-linejoin="round" stroke-width="2"/><text transform="translate(27 139.115385)" fill="black"><tspan font-family="Handwriting - Dakota" font-size="32" font-weight="500" fill="black" x="38.536" y="34" textLength="72.928">SSH</tspan></text><ellipse cx="102" cy="44.60355" rx="52.173996" ry="42.603619" fill="white"/><ellipse cx="102" cy="44.60355" rx="52.173996" ry="42.603619" stroke="black" stroke-linecap="round" stroke-linejoin="round" stroke-width="2"/></g></g></svg>
