{
  "relationships": [
    {
      "relationshipId": 1,
      "relationshipName": "belong",
      "otherEntityName": "application",
      "relationshipType": "many-to-one",
      "otherEntityField": "id"
    },
    {
      "relationshipId": 2,
      "relationshipName": "use",
      "otherEntityName": "sshServer",
      "relationshipType": "many-to-one",
      "otherEntityField": "id"
    }
  ],
  "fields": [
    {
      "fieldId": 1,
      "fieldName": "executable",
      "javadoc": "app compiled for a specific server",
      "fieldType": "byte[]",
      "fieldTypeBlobContent": "any",
      "fieldValidateRules": [
        "required"
      ]
    }
  ],
  "changelogDate": "20160505094254",
  "dto": "mapstruct",
  "pagination": "pagination",
  "service": "serviceClass"
}