{
  "relationships": [
    {
      "relationshipId": 1,
      "relationshipName": "owner",
      "otherEntityName": "user",
      "relationshipType": "many-to-one",
      "otherEntityField": "id"
    }
  ],
  "fields": [
    {
      "fieldId": 1,
      "fieldName": "name",
      "fieldType": "String",
      "fieldValidateRules": [
        "required"
      ]
    },
    {
      "fieldId": 2,
      "fieldName": "description",
      "fieldType": "String"
    },
    {
      "fieldId": 3,
      "fieldName": "timestamp",
      "fieldType": "ZonedDateTime",
      "fieldValidateRules": [
        "required"
      ]
    },
    {
      "fieldId": 4,
      "fieldName": "numPattern",
      "fieldType": "Integer"
    },
    {
      "fieldId": 5,
      "fieldName": "outputFeature",
      "fieldType": "Integer"
    },
    {
      "fieldId": 6,
      "fieldName": "inputFeature",
      "fieldType": "Integer"
    },
    {
      "fieldId": 7,
      "fieldName": "numCombination",
      "fieldType": "Integer"
    },
    {
      "fieldId": 8,
      "fieldName": "numClass",
      "fieldType": "Integer"
    }
  ],
  "changelogDate": "20160412101222",
  "dto": "mapstruct",
  "pagination": "pagination",
  "service": "serviceClass"
}