{
  "relationships": [
    {
      "relationshipId": 1,
      "relationshipName": "use",
      "otherEntityName": "pattern",
      "relationshipType": "many-to-one",
      "otherEntityField": "id"
    },
    {
      "relationshipId": 2,
      "relationshipName": "belong",
      "otherEntityName": "datasetCombination",
      "relationshipType": "many-to-one",
      "otherEntityField": "id"
    },
    {
      "relationshipId": 3,
      "relationshipName": "SetType",
      "otherEntityName": "setType",
      "relationshipType": "many-to-one",
      "otherEntityField": "id"
    }
  ],
  "fields": [
    {
      "fieldId": 1,
      "fieldName": "indexPattern",
      "javadoc": "means the index inside the combination",
      "fieldType": "Integer",
      "fieldValidateRules": [
        "required"
      ]
    }
  ],
  "changelogDate": "20160412101225",
  "dto": "mapstruct",
  "pagination": "pagination",
  "service": "serviceClass"
}