{
  "relationships": [],
  "fields": [
    {
      "fieldId": 1,
      "fieldName": "name",
      "javadoc": "0: MSE, 1: MAE",
      "fieldType": "String",
      "fieldValidateRules": [
        "required",
        "maxlength"
      ],
      "fieldValidateRulesMaxlength": 50
    }
  ],
  "changelogDate": "20160505103300",
  "dto": "mapstruct",
  "pagination": "pagination",
  "service": "serviceClass"
}