{
  "relationships": [
    {
      "relationshipId": 1,
      "relationshipName": "belong",
      "otherEntityName": "pattern",
      "relationshipType": "many-to-one",
      "otherEntityField": "id"
    },
    {
      "relationshipId": 2,
      "relationshipName": "PatternType",
      "otherEntityName": "patternType",
      "relationshipType": "many-to-one",
      "otherEntityField": "id"
    }
  ],
  "fields": [
    {
      "fieldId": 1,
      "fieldName": "indexFeature",
      "fieldType": "Integer",
      "fieldValidateRules": [
        "required"
      ]
    },
    {
      "fieldId": 2,
      "fieldName": "value",
      "fieldType": "Double",
      "fieldValidateRules": [
        "required"
      ]
    }
  ],
  "changelogDate": "20160414071039",
  "dto": "mapstruct",
  "pagination": "pagination",
  "service": "serviceClass"
}