{
  "relationships": [
    {
      "relationshipId": 1,
      "relationshipName": "belong",
      "otherEntityName": "dataset",
      "relationshipType": "many-to-one",
      "otherEntityField": "id"
    }
  ],
  "fields": [
    {
      "fieldId": 1,
      "fieldName": "indexPattern",
      "javadoc": "it's just the position inside the dataset (it's to have a way to identify)",
      "fieldType": "Integer",
      "fieldValidateRules": [
        "required"
      ]
    }
  ],
  "changelogDate": "20160412101223",
  "dto": "mapstruct",
  "pagination": "pagination",
  "service": "serviceClass"
}