{
  "relationships": [
    {
      "relationshipId": 1,
      "relationshipName": "belong",
      "otherEntityName": "ga",
      "relationshipType": "many-to-one",
      "otherEntityField": "id"
    },
    {
      "relationshipId": 2,
      "relationshipName": "use",
      "otherEntityName": "population",
      "relationshipType": "many-to-one",
      "otherEntityField": "id"
    }
  ],
  "fields": [
    {
      "fieldId": 1,
      "fieldName": "indexOrder",
      "fieldType": "Integer",
      "fieldValidateRules": [
        "required"
      ]
    }
  ],
  "changelogDate": "20160504101008",
  "dto": "mapstruct",
  "pagination": "pagination",
  "service": "serviceClass"
}