{
  "relationships": [
    {
      "relationshipId": 1,
      "relationshipName": "minimize",
      "otherEntityName": "errorType",
      "relationshipType": "many-to-many",
      "otherEntityField": "name",
      "ownerSide": true
    }
  ],
  "fields": [
    {
      "fieldId": 1,
      "fieldName": "name",
      "javadoc": "0: AnnFixedGlia, 1: AngnSearchGlia, 2: nuSVM",
      "fieldType": "String",
      "fieldValidateRules": [
        "required",
        "maxlength"
      ],
      "fieldValidateRulesMaxlength": 100
    },
    {
      "fieldId":2,
      "fieldName": "outputFeatureConstraint",
      "fieldType": "Integer"
    },
    {
      "fieldId":3,
      "fieldName": "numPopulation",
      "fieldType": "Integer",
      "fieldValidateRules": [
        "required"
      ]
    }
  ],
  "changelogDate": "20160505103301",
  "dto": "mapstruct",
  "pagination": "pagination",
  "service": "serviceClass"
}
