{
  "relationships": [
    {
      "relationshipId": 1,
      "relationshipName": "belong",
      "otherEntityName": "logRecord",
      "relationshipType": "many-to-one",
      "otherEntityField": "id"
    }
  ],
  "fields": [
    {
      "fieldId": 1,
      "fieldName": "name",
      "fieldType": "String",
      "fieldValidateRules": [
        "required"
      ]
    },
    {
      "fieldId": 2,
      "fieldName": "value",
      "fieldType": "String",
      "fieldValidateRules": [
        "required"
      ]
    }
  ],
  "changelogDate": "20160504091753",
  "dto": "mapstruct",
  "pagination": "pagination",
  "service": "serviceClass"
}